
1 plan(s) were found:

Plan #1:
Plan cost: 1.0

(!absence in breakout_area)
--------------------

Time Used = 0.01


1 plan(s) were found:

Plan #1:
Plan cost: 1.0

(!absence in breakout_area)
--------------------

Time Used = 0.016


1 plan(s) were found:

Plan #1:
Plan cost: 1.0

(!absence in breakout_area)
--------------------

Time Used = 0.0


1 plan(s) were found:

Plan #1:
Plan cost: 1.0

(!absence in breakout_area)
--------------------

Time Used = 0.015


1 plan(s) were found:

Plan #1:
Plan cost: 1.0

(!absence in breakout_area)
--------------------

Time Used = 0.0


1 plan(s) were found:

Plan #1:
Plan cost: 1.0

(!absence in breakout_area)
--------------------

Time Used = 0.0


1 plan(s) were found:

Plan #1:
Plan cost: 1.0

(!absence in breakout_area)
--------------------

Time Used = 0.016


1 plan(s) were found:

Plan #1:
Plan cost: 1.0

(!absence in breakout_area)
--------------------

Time Used = 0.0


1 plan(s) were found:

Plan #1:
Plan cost: 1.0

(!absence in breakout_area)
--------------------

Time Used = 0.016


1 plan(s) were found:

Plan #1:
Plan cost: 1.0

(!absence in breakout_area)
--------------------

Time Used = 0.0

