---------------------------------------  -------------------------------------------------------------------------------------------------------------
Plugwisemicrowave_sensors_IDs_3mps12345  [0.7502309428546732, 0.8033305824897714, 0.07220211933277398, 0.3814675744777377, 0.001, 0.16319376070890307]
Motion_sensor_ID_3ms1                    0
time                                     2022-05-11 10:11:39.252424
---------------------------------------  -------------------------------------------------------------------------------------------------------------
---------------------------------------  ----------------------------------------------------------------------------------------------
Plugwisemicrowave_sensors_IDs_3mps12345  [1.4594465089069732, 0.001, 0.9473462170856451, 1.1849768796075875, 0.001, 0.0920752436339114]
Motion_sensor_ID_3ms1                    1
time                                     2022-05-11 10:11:45.528496
---------------------------------------  ----------------------------------------------------------------------------------------------
---------------------------------------  -----------------------------------------------------------------------------------------------
Plugwisemicrowave_sensors_IDs_3mps12345  [0.001, 0.001, 0.2365502002044163, 1.0818016268819906, 1.1525561842872083, 0.28159290912707213]
Motion_sensor_ID_3ms1                    0
time                                     2022-05-11 10:11:49.906305
---------------------------------------  -----------------------------------------------------------------------------------------------
---------------------------------------  ---------------------------------------------------------------------------------------------------------
Plugwisemicrowave_sensors_IDs_3mps12345  [1.29015896293203, 0.9102970671077396, 1.1225295526806875, 0.9148665474806659, 0.001, 0.2055461906573487]
Motion_sensor_ID_3ms1                    1
time                                     2022-05-11 10:11:54.023107
---------------------------------------  ---------------------------------------------------------------------------------------------------------
---------------------------------------  ------------------------------------------------------------------------------------------------
Plugwisemicrowave_sensors_IDs_3mps12345  [1.1494893454717856, 0.14731255442227487, 0.21970955248191326, 0.001, 0.001, 0.8599317399282356]
Motion_sensor_ID_3ms1                    1
time                                     2022-05-11 10:11:57.744214
---------------------------------------  ------------------------------------------------------------------------------------------------
---------------------------------------  ----------------------------------------------------------------------------------
Plugwisemicrowave_sensors_IDs_3mps12345  [1.0624446455139307, 1.4170956807325161, 0.001, 0.001, 0.11847386555734579, 0.001]
Motion_sensor_ID_3ms1                    0
time                                     2022-05-11 10:12:01.278723
---------------------------------------  ----------------------------------------------------------------------------------
---------------------------------------  ------------------------------------------------------------------------------------------------------------------------
Plugwisemicrowave_sensors_IDs_3mps12345  [0.6487276421667867, 1.1353314017563014, 1.4538067051515942, 1.1864665190823969, 0.3349609708844423, 1.3459824398477869]
Motion_sensor_ID_3ms1                    0
time                                     2022-05-11 10:12:05.033158
---------------------------------------  ------------------------------------------------------------------------------------------------------------------------
---------------------------------------  ----------------------------------------------------------------------------------
Plugwisemicrowave_sensors_IDs_3mps12345  [1.1210746747007494, 0.16261340746500014, 0.001, 0.001, 0.7960782027664961, 0.001]
Motion_sensor_ID_3ms1                    1
time                                     2022-05-11 10:12:08.889225
---------------------------------------  ----------------------------------------------------------------------------------
---------------------------------------  ------------------------------------------------------------------------------------------------------------
Plugwisemicrowave_sensors_IDs_3mps12345  [0.19697790086942313, 0.558989979675018, 0.8999741872795444, 0.001, 0.2455544623149375, 0.24660130453594276]
Motion_sensor_ID_3ms1                    1
time                                     2022-05-11 10:12:13.405373
---------------------------------------  ------------------------------------------------------------------------------------------------------------
---------------------------------------  ------------------------------------------------------------------------------------------------------------
Plugwisemicrowave_sensors_IDs_3mps12345  [1.2102164630609367, 1.1694375287558627, 0.28464933441828555, 1.1776322446430165, 0.001, 0.7305151984040377]
Motion_sensor_ID_3ms1                    0
time                                     2022-05-11 10:12:18.057611
---------------------------------------  ------------------------------------------------------------------------------------------------------------
